// Jest Snapshot v1, https://goo.gl/fbAQLP

exports[`Review renders correctly 1`] = `
<div
  className="undefined bg-white flex flex-col p-6 gap-y-4"
>
  <div
    className="flex flex-row gap-x-2"
  >
    <img
      src="/user_image.png"
    />
    <div
      className="flex flex-col justify-around"
    >
      <div
        className="flex flex-row"
      >
        <img
          src="/star.png"
        />
        <img
          src="/star.png"
        />
        <img
          src="/star.png"
        />
        <img
          src="/star.png"
        />
        <img
          src="/star.png"
        />
      </div>
      <div
        className="flex flex-row gap-x-2"
      >
        <span
          className="text-nowrap txt-darkestgray font-bold text-sm"
        >
          Ken T.
        </span>
        <img
          className="object-contain"
          src="/verify.png"
        />
        <span
          className="text-green text-nowrap text-sm"
        >
          Verified Customer
        </span>
      </div>
    </div>
  </div>
  <span
    className="text-darkergray text-base"
  >
    “As soon as the Clarifions arrived I put one in my bedroom. This was late in the afternoon. When I went to the bedroom in the evening it smelled clean. When I went to bed I felt I could breathe better. Wonderful.”
  </span>
</div>
`;
